821324869	XM_003974600.2	May 15, 2015 12:32 AM
821324830	XM_003977439.1	May 15, 2015 12:32 AM
815009573	XM_003965833.2	Apr 24, 2015 02:43 PM
815007126	XM_003968938.2	Apr 24, 2015 02:40 PM
814714326	XM_011607419.1	Apr 23, 2015 05:57 PM
814714324	XM_011604920.1	Apr 23, 2015 05:04 PM
814714322	XM_003973995.2	Apr 23, 2015 03:50 PM
773669934	XM_003974152.2	Mar 21, 2015 12:33 AM
525345045	XM_003968186.1	Jul 22, 2013 01:21 AM
525344504	XM_003973486.1	Jul 22, 2013 01:09 AM
773669830	XM_011604418.1	Mar 21, 2015 12:33 AM
771916047	XM_011610804.1	Mar 20, 2015 12:33 AM
771915873	XM_011604770.1	Mar 20, 2015 12:33 AM
771915405	XM_011615948.1	Mar 20, 2015 12:33 AM
771915249	XM_003973771.2	Mar 20, 2015 12:32 AM
771915235	XM_003964122.2	Mar 20, 2015 12:32 AM
568214868	XM_003972631.1	Dec 20, 2013 12:37 AM
525345417	XM_003971946.1	Jul 22, 2013 01:28 AM
525345388	XM_003961325.1	Jul 22, 2013 01:28 AM
525345349	XM_003975076.1	Jul 22, 2013 01:27 AM
525345283	XM_003972943.1	Jul 22, 2013 01:26 AM
525345242	XM_003969461.1	Jul 22, 2013 01:25 AM
525345130	XM_003962157.1	XM_003962158.1	Jul 22, 2013 01:23 AM
525344800	XM_003968253.1	Jul 22, 2013 01:16 AM
525344713	XM_003974805.1	Jul 22, 2013 01:13 AM
525344630	XM_003973550.1	Jul 22, 2013 01:12 AM
525344541	XM_003967719.1	Jul 22, 2013 01:10 AM
525342530	XM_003974533.1	Jul 22, 2013 12:31 AM
553727089	XM_003971400.1	Oct 26, 2013 12:34 AM
552953719	XM_003971435.1	Oct 25, 2013 12:35 AM
525344858	XM_003967377.1	Jul 22, 2013 01:17 AM
525345313	XM_003961339.1	Jul 22, 2013 01:26 AM
525345231	XM_003966417.1	Jul 22, 2013 01:25 AM
525345221	XM_003974801.1	Jul 22, 2013 01:25 AM
525345188	XM_003964413.1	Jul 22, 2013 01:24 AM
525345160	XM_003978618.1	Jul 22, 2013 01:24 AM
525345120	XM_003964069.1	Jul 22, 2013 01:23 AM
525345019	XM_003964554.1	Jul 22, 2013 01:21 AM
525344987	XM_003975064.1	Jul 22, 2013 01:20 AM
525344960	XM_003969494.1	Jul 22, 2013 01:20 AM
525344947	XM_003966358.1	XM_003966359.1	Jul 22, 2013 01:19 AM
525344918	XM_003968604.1	Jul 22, 2013 01:18 AM
525344890	XM_003976809.1	Jul 22, 2013 01:17 AM
525344831	XM_003973078.1	Jul 22, 2013 01:16 AM
525344772	XM_003976084.1	Jul 22, 2013 01:15 AM
525344743	XM_003967056.1	Jul 22, 2013 01:14 AM
525344734	XM_003969646.1	Jul 22, 2013 01:14 AM
525344580	XM_003975883.1	Jul 22, 2013 01:11 AM
525342621	XM_003966287.1	Jul 22, 2013 12:33 AM
525342587	XM_003978342.1	Jul 22, 2013 12:32 AM
525342553	XM_003964262.1	Jul 22, 2013 12:31 AM
525342452	XM_003965106.1	Jul 22, 2013 12:30 AM
471270265	XM_003977919.1	Mar 27, 2013 01:29 AM
471270263	XM_003979505.1	Mar 27, 2013 01:29 AM
339511123	AF349943.1	AF349944.1	AF349945.1	Jul 6, 2011 05:00 PM
339511113	L78929.1	L78930.1	Jul 6, 2011 04:55 PM
339511112	L79889.1	L79890.1	Jul 6, 2011 04:55 PM
21166362	AF290951.1	May 24, 2002 02:02 PM
4204467	AF023420	Jan 31, 1999 12:06 AM
3170534	U82608	Jun 2, 1998 12:25 AM
39932988	AF266754.1	AF266755.1	Dec 16, 2003 11:18 AM
42601267	AY164753.1	Feb 18, 2004 12:34 PM
42601261	AY164745.1	Feb 18, 2004 12:34 PM
8980334	AJ271362.1	AJ271363.1	Jul 10, 2000 02:39 PM
