2286120	Y10925	Jan 6, 1998 12:18 AM
287402	D10436	Jun 11, 1993 06:07 PM
20365	S41992.1	Aug 17, 2005 02:41 PM
20402	S39554.1	Aug 11, 2005 09:48 AM
20177	S47120.1	Aug 11, 2005 09:42 AM
10278353	AX030964.1	Oct 15, 2002 08:47 AM
